[
  {
    "id": "6276443e2a8ca63cf66c955e",
    "name": "SUSHI",
    "quantity": 16,
    "price": 32,
    "imageUrl": "https://picsum.photos/224/275?random=198"
  },
  {
    "id": "6276443e84d83097c164e0f5",
    "name": "Genevieve",
    "quantity": 10,
    "price": 41,
    "imageUrl": "https://picsum.photos/224/275?random=71"
  },
  {
    "id": "6276443efb34d3dac3ef084c",
    "name": "Aileen",
    "quantity": 11,
    "price": 21,
    "imageUrl": "https://picsum.photos/224/275?random=160"
  },
  {
    "id": "6276443e49dfe3753b066862",
    "name": "Holland",
    "quantity": 10,
    "price": 55,
    "imageUrl": "https://picsum.photos/224/275?random=180"
  },
  {
    "id": "6276443ebe921980da6cabda",
    "name": "Eliza",
    "quantity": 18,
    "price": 29,
    "imageUrl": "https://picsum.photos/224/275?random=125"
  }
]
